g SoftCurrency
v 0.2117638 1.3399361 1.0555135
v 0.22113544 0.98058957 1.1028953
v 0.6283032 0.98162633 0.93723
v 0.6015662 1.3409452 0.89712024
v 0.9372296 0.98162633 0.6283036
v 0.15822856 1.6332313 0.79133123
v 0.89711994 1.3409452 0.6015664
v 1.1028949 0.98058957 0.22113599
v 0.4499178 1.6337931 0.67189926
v 1.055513 1.3399361 0.2117641
v 1.102895 0.98058957 -0.2211351
v 0.22770508 1.8211421 0.3405551
v 0.07999739 1.8210107 0.4015186
v 0.3405547 1.8211421 0.22770545
v 0.6718988 1.6337931 0.44991815
v 0.40151846 1.8210107 0.07999774
v 0.791331 1.6332313 0.15822893
v 0.40151843 1.8210107 -0.07999697
v 1.0555134 1.339936 -0.21176341
v 0.93722975 0.98162633 -0.62830293
v 0.7913312 1.6332313 -0.1582282
v 0.34055483 1.8211421 -0.22770476
v 0.8971201 1.3409452 -0.6015658
v 0.6283034 0.98162633 -0.93722934
v 0.6718991 1.6337931 -0.44991755
v 0.22770517 1.8211421 -0.34055442
v 0.6015662 1.3409452 -0.89711964
v 0.22113559 0.98058957 -1.1028949
v 0.44991797 1.6337931 -0.67189854
v 0.079997405 1.8210107 -0.40151805
v 0.21176375 1.3399361 -1.0555131
v -0.22113511 0.98058957 -1.1028941
v 0.1582286 1.6332313 -0.7913309
v -0.21176362 1.339936 -1.0555127
v -0.6283027 0.9816263 -0.937229
v -0.15822835 1.6332313 -0.79133046
v -0.07999718 1.8210107 -0.40151766
v -0.22770482 1.8211421 -0.34055403
v -0.6015657 1.3409452 -0.89711934
v -0.93722916 0.9816263 -0.6283029
v -0.44991753 1.633793 -0.6718983
v -0.34055442 1.8211421 -0.22770455
v -0.89711976 1.3409452 -0.6015654
v -1.1028944 0.98058957 -0.2211353
v -0.6718985 1.633793 -0.44991747
v -0.401518 1.8210107 -0.07999693
v -1.0555133 1.339936 -0.21176334
v -1.1028945 0.98058957 0.22113568
v -0.79133075 1.6332313 -0.15822834
v -0.401518 1.8210107 0.07999764
v -1.0555129 1.3399361 0.2117641
v -0.9372295 0.98162633 0.6283033
v -0.79133093 1.6332313 0.15822878
v -0.34055454 1.8211421 0.22770523
v -0.89711976 1.3409452 0.6015664
v -0.6283033 0.98162633 0.93722975
v -0.67189854 1.6337931 0.44991806
v -0.22770493 1.8211421 0.34055495
v -0.60156596 1.3409452 0.8971202
v -0.22113569 0.98058957 1.102895
v -0.4499177 1.6337931 0.6718991
v -0.07999725 1.8210107 0.4015186
v -0.21176367 1.3399361 1.0555135
v 0.22113544 0.98058957 1.1028953
v 0.2117638 1.3399361 1.0555135
v -0.1582286 1.6332313 0.7913312
v 0.07999739 1.8210107 0.4015186
v 0.15822856 1.6332313 0.79133123
v 0.07999739 1.8210107 0.4015186
v 0.26652244 2.2258043 0.3985522
v 0.09364421 2.2256393 0.46984965
v 0.22770508 1.8211421 0.3405551
v 0.39855188 2.2258043 0.2665228
v 0.3405547 1.8211421 0.22770545
v 0.46984947 2.2256393 0.0936446
v 0.40151846 1.8210107 0.07999774
v 0.46984947 2.2256393 -0.093643814
v 0.40151843 1.8210107 -0.07999697
v 0.398552 2.2258043 -0.2665221
v 0.34055483 1.8211421 -0.22770476
v 0.26652253 2.2258043 -0.3985516
v 0.22770517 1.8211421 -0.34055442
v 0.093644194 2.2256393 -0.46984908
v 0.079997405 1.8210107 -0.40151805
v -0.093644105 2.2256393 -0.46984854
v -0.07999718 1.8210107 -0.40151766
v -0.26652214 2.2258043 -0.3985512
v -0.22770482 1.8211421 -0.34055403
v -0.39855158 2.2258043 -0.26652187
v -0.34055442 1.8211421 -0.22770455
v -0.46984896 2.2256393 -0.09364374
v -0.401518 1.8210107 -0.07999693
v -0.46984896 2.2256393 0.09364448
v -0.401518 1.8210107 0.07999764
v -0.39855167 2.2258043 0.26652262
v -0.34055454 1.8211421 0.22770523
v -0.26652226 2.2258043 0.3985521
v -0.22770493 1.8211421 0.34055495
v -0.09364413 2.2256393 0.46984953
v -0.07999725 1.8210107 0.4015186
v 0.09364421 2.2256393 0.46984965
v 0.07999739 1.8210107 0.4015186
v -0.22113569 0.98058957 1.102895
v 0.19428606 0.6138718 0.97239184
v 0.22113544 0.98058957 1.1028953
v -0.19428593 0.6138718 0.97239184
v -0.6283033 0.98162633 0.93722975
v 0.14223014 0.29973423 0.714059
v -0.55257404 0.61458915 0.8254634
v -0.9372295 0.98162633 0.6283033
v -0.1422302 0.29973423 0.7140589
v 0.07494203 0.08858991 0.3766899
v -0.82546276 0.61458915 0.5525745
v -1.1028945 0.98058957 0.22113568
v -0.074942 0.08858991 0.37668982
v -4.6588866E-10 0.014120102 3.2317388E-07
v -0.4048792 0.30002797 0.60560185
v -0.9723915 0.61387175 0.19428632
v -1.1028944 0.98058957 -0.2211353
v -0.21340564 0.08863222 0.31936017
v -0.60560155 0.30002797 0.40487945
v -0.9723913 0.61387175 -0.19428563
v -0.93722916 0.9816263 -0.6283029
v -0.3193599 0.088632286 0.21340589
v -0.7140585 0.29973423 0.14223039
v -0.82546294 0.6145891 -0.5525738
v -0.6283027 0.9816263 -0.937229
v -0.37668943 0.08858991 0.07494224
v -0.71405834 0.29973423 -0.14222999
v -0.55257404 0.6145891 -0.8254626
v -0.22113511 0.98058957 -1.1028941
v -0.37668937 0.08858985 -0.07494173
v -0.60560143 0.30002797 -0.40487894
v -0.1942859 0.61387175 -0.972391
v 0.22113559 0.98058957 -1.1028949
v -0.3193598 0.088632286 -0.21340531
v -0.40487903 0.30002797 -0.6056012
v -0.21340553 0.088632286 -0.31935954
v -0.07494191 0.08858985 -0.3766891
v 0.07494206 0.08858991 -0.37668943
v -0.14223002 0.29973423 -0.71405816
v 0.19428606 0.61387175 -0.9723915
v 0.6283034 0.98162633 -0.93722934
v 0.14223024 0.29973423 -0.7140585
v 0.5525744 0.61458915 -0.8254629
v 0.93722975 0.98162633 -0.62830293
v 0.40487936 0.30002797 -0.6056015
v 0.82546324 0.61458915 -0.5525741
v 1.102895 0.98058957 -0.2211351
v 0.21340579 0.088632286 -0.3193598
v 0.9723917 0.61387175 -0.19428577
v 1.1028949 0.98058957 0.22113599
v 0.6056018 0.30002797 -0.40487903
v 0.9723917 0.61387175 0.19428627
v 0.9372296 0.98162633 0.6283036
v 0.3193601 0.08863222 -0.21340549
v 0.7140588 0.29973423 -0.1422299
v 0.8254632 0.61458915 0.5525745
v 0.6283032 0.98162633 0.93723
v 0.3766897 0.08858985 -0.07494173
v 0.7140588 0.29973423 0.14223056
v 0.5525744 0.61458915 0.8254634
v 0.22113544 0.98058957 1.1028953
v 0.19428606 0.6138718 0.97239184
v 0.3766897 0.08858996 0.07494235
v 0.6056018 0.30002797 0.40487957
v 0.4048792 0.30002797 0.605602
v 0.14223014 0.29973423 0.714059
v 0.31936005 0.08863222 0.21340606
v 0.2134057 0.08863222 0.31936032
v 0.07494203 0.08858991 0.3766899
v 0.12911183 2.2703195 0.64666075
v 0.14018665 2.6100016 0.7016156
v -0.14018665 2.6100016 0.7016155
v -0.12911183 2.2703195 0.6466606
v -0.39869902 2.6104565 0.5955904
v -0.36727944 2.2706914 0.5488208
v -0.5955899 2.6104565 0.39869928
v -0.54882026 2.2706914 0.36727968
v -0.701615 2.6100016 0.14018692
v -0.64665985 2.2703195 0.12911212
v -0.64665985 2.2703195 -0.12911145
v -0.701615 2.6100016 -0.14018618
v -0.59558976 2.6104565 -0.39869854
v -0.54882014 2.2706914 -0.36727896
v -0.3986988 2.6104565 -0.5955892
v -0.36727917 2.2706914 -0.54881984
v -0.14018656 2.6100016 -0.7016145
v -0.12911172 2.2703195 -0.6466594
v 0.14018664 2.6100016 -0.7016152
v 0.12911183 2.2703195 -0.64666015
v 0.3986992 2.6104565 -0.5955899
v 0.36727965 2.2706914 -0.5488203
v 0.59559023 2.6104565 -0.39869887
v 0.54882073 2.2706914 -0.36727926
v 0.70161545 2.6100016 -0.14018619
v 0.6466605 2.2703195 -0.12911144
v 0.70161545 2.6100016 0.14018711
v 0.6466605 2.2703195 0.12911226
v 0.59559023 2.6104565 0.39869964
v 0.5488206 2.2706914 0.36727995
v 0.36727947 2.2706914 0.5488209
v 0.39869907 2.6104565 0.5955906
v 0.12911183 2.2703195 0.64666075
v 0.14018665 2.6100016 0.7016156
v 0.037395883 2.4023874 0.3668347
v -0.20208171 2.9859009 0.45338377
v 0.051432803 2.9453003 0.49380141
v -0.15136242 2.4023874 0.33659717
v -0.2993583 2.4023874 0.21614097
v -0.40114397 3.0031235 0.29126793
v -0.36698824 2.4023874 0.03745165
v -0.49233875 2.992134 0.05045076
v -0.33646876 2.4023874 -0.15126075
v -0.4518049 2.9564714 -0.20374839
v -0.21590406 2.4023874 -0.298981
v -0.29042932 2.9053447 -0.40227175
v -0.0373981 2.4023874 -0.36636078
v -0.051296506 2.8522534 -0.49241534
v 0.15099925 2.4023874 -0.33586398
v 0.2010879 2.812 -0.4511808
v 0.2985925 2.4023874 -0.2155871
v 0.39888552 2.7949877 -0.28962988
v 0.36617953 2.4023874 -0.03733955
v 0.48993528 2.8055315 -0.05020461
v 0.3360178 2.4023874 0.15111229
v 0.45053282 2.8413796 0.20317353
v 0.21585672 2.4023874 0.2990152
v 0.2904319 2.892604 0.40227202
v 0.037395883 2.4023874 0.3668347
v 0.051432803 2.9453003 0.49380141
v 0.037395883 2.4023874 0.3668347
v -0.2993583 2.4023874 0.21614097
v -0.15136242 2.4023874 0.33659717
v 0.21585672 2.4023874 0.2990152
v -0.36698824 2.4023874 0.03745165
v 0.3360178 2.4023874 0.15111229
v -0.33646876 2.4023874 -0.15126075
v 0.36617953 2.4023874 -0.03733955
v -0.21590406 2.4023874 -0.298981
v 0.2985925 2.4023874 -0.2155871
v -0.0373981 2.4023874 -0.36636078
v 0.15099925 2.4023874 -0.33586398
v 0.5641354 0.993943 0.8406514
v 0.8406511 0.993943 0.5641358
v 0.61866343 0.6720208 0.61866355
v 0.87273705 0.67113715 2.3841858E-07
v 0.98910177 0.9928086 0.19880982
v 0.98910195 0.9928086 -0.19880897
v 0.61866343 0.6720208 -0.61866313
v 0.84065115 0.993943 -0.56413513
v 0.5641356 0.993943 -0.84065086
v 1.4901161E-07 0.67113715 -0.87273663
v 0.1988095 0.9928086 -0.98910177
v -0.1988089 0.9928086 -0.989101
v -0.61866313 0.67202073 -0.61866283
v -0.56413496 0.9939429 -0.8406504
v -0.8406506 0.9939429 -0.564135
v -0.8727367 0.67113715 3.501773E-07
v -0.9891013 0.9928086 -0.19880912
v -0.98910147 0.9928086 0.19880952
v -0.6186631 0.6720208 0.61866355
v -0.8406509 0.993943 0.5641355
v -0.5641355 0.993943 0.8406512
v 8.195639E-08 0.6711372 0.87273717
v -0.1988095 0.9928086 0.98910195
v -0.24453771 0.38708082 0.58966815
v -0.5896678 0.38708082 0.24453792
v -0.5896677 0.38708082 -0.24453746
v -0.24453752 0.38708082 -0.58966744
v -0.23551607 0.1964095 0.23551635
v 2.6077032E-08 0.19637084 0.33305147
v 1.3428077E-08 0.1307246 3.2647682E-07
v -0.33305103 0.19637083 2.5331974E-07
v -0.23551597 0.19640952 -0.23551574
v 0.24453785 0.38708088 -0.5896678
v 1.0430813E-07 0.19637083 -0.3330509
v 0.5896681 0.38708088 -0.24453746
v 0.23551628 0.1964095 -0.23551597
v 0.5896681 0.38708082 0.24453807
v 0.33305132 0.19637084 2.8684735E-07
v 0.23551622 0.19640945 0.2355165
v 2.6077032E-08 0.19637084 0.33305147
v 0.24453771 0.38708082 0.5896683
v -0.24453771 0.38708082 0.58966815
v 8.195639E-08 0.6711372 0.87273717
v 0.19880931 0.9928086 0.9891021
v 0.5641354 0.993943 0.8406514
v -0.1988095 0.9928086 0.98910195
v 0.84065115 0.993943 -0.56413513
v 0.98910195 0.9928086 -0.19880897
v 0.98910177 0.9928086 0.19880982
v 0.8406511 0.993943 0.5641358
v 0.5641356 0.993943 -0.84065086
v 0.5641354 0.993943 0.8406514
v 0.1988095 0.9928086 -0.98910177
v 0.19880931 0.9928086 0.9891021
v -0.1988089 0.9928086 -0.989101
v -0.1988095 0.9928086 0.98910195
v -0.56413496 0.9939429 -0.8406504
v -0.5641355 0.993943 0.8406512
v -0.8406506 0.9939429 -0.564135
v -0.8406509 0.993943 0.5641355
v -0.9891013 0.9928086 -0.19880912
v -0.98910147 0.9928086 0.19880952
v 0.09364421 2.2256393 0.46984965
v 0.36727947 2.2706914 0.5488209
v 0.12911183 2.2703195 0.64666075
v -0.12911183 2.2703195 0.6466606
v 0.26652244 2.2258043 0.3985522
v -0.09364413 2.2256393 0.46984953
v 0.39855188 2.2258043 0.2665228
v -0.36727944 2.2706914 0.5488208
v 0.5488206 2.2706914 0.36727995
v -0.26652226 2.2258043 0.3985521
v 0.46984947 2.2256393 0.0936446
v -0.54882026 2.2706914 0.36727968
v 0.6466605 2.2703195 0.12911226
v -0.39855167 2.2258043 0.26652262
v 0.46984947 2.2256393 -0.093643814
v -0.64665985 2.2703195 0.12911212
v 0.6466605 2.2703195 -0.12911144
v -0.46984896 2.2256393 0.09364448
v 0.398552 2.2258043 -0.2665221
v -0.64665985 2.2703195 -0.12911145
v 0.54882073 2.2706914 -0.36727926
v -0.46984896 2.2256393 -0.09364374
v 0.26652253 2.2258043 -0.3985516
v -0.54882014 2.2706914 -0.36727896
v 0.36727965 2.2706914 -0.5488203
v -0.39855158 2.2258043 -0.26652187
v 0.093644194 2.2256393 -0.46984908
v -0.36727917 2.2706914 -0.54881984
v 0.12911183 2.2703195 -0.64666015
v -0.26652214 2.2258043 -0.3985512
v -0.093644105 2.2256393 -0.46984854
v -0.12911172 2.2703195 -0.6466594
v 0.051432803 2.9453003 0.49380141
v 0.2563561 2.9659448 0.3550492
v 0.2904319 2.892604 0.40227202
v 0.45053282 2.8413796 0.20317353
v 0.39870194 2.9140553 0.17927837
v 0.48993528 2.8055315 -0.05020461
v 0.4342025 2.8760343 -0.0442964
v 0.39888552 2.7949877 -0.28962988
v 0.3539873 2.8623104 -0.25558865
v 0.2010879 2.812 -0.4511808
v 0.17907682 2.8761308 -0.39825445
v -0.051296506 2.8522534 -0.49241534
v -0.044346374 2.913959 -0.4346897
v -0.29042932 2.9053447 -0.40227175
v -0.2563562 2.9659448 -0.35504904
v -0.4518049 2.9564714 -0.20374839
v -0.39981472 3.017746 -0.17978048
v -0.49233875 2.992134 0.05045076
v -0.4363017 3.055622 0.044511423
v -0.40114397 3.0031235 0.29126793
v -0.35596687 3.0696752 0.25701967
v -0.20208171 2.9859009 0.45338377
v -0.17994596 3.055719 0.40018103
v 0.044470415 3.0176492 0.4359025
v -0.22466993 2.6104565 -0.33415133
v -0.07949438 2.6100016 -0.39369312
v -0.14018656 2.6100016 -0.7016145
v -0.3986988 2.6104565 -0.5955892
v 0.14018664 2.6100016 -0.7016152
v -0.33415192 2.6104565 -0.22466949
v 0.079495244 2.6100016 -0.39369345
v -0.59558976 2.6104565 -0.39869854
v 0.3986992 2.6104565 -0.5955899
v -0.39369345 2.6100016 -0.07949444
v 0.22467023 2.6104565 -0.334152
v -0.701615 2.6100016 -0.14018618
v 0.59559023 2.6104565 -0.39869887
v -0.39369342 2.6100016 0.07949524
v 0.33415228 2.6104565 -0.22466996
v -0.701615 2.6100016 0.14018692
v 0.70161545 2.6100016 -0.14018619
v -0.33415186 2.6104565 0.2246705
v 0.39369386 2.6100016 -0.07949451
v -0.5955899 2.6104565 0.39869928
v 0.70161545 2.6100016 0.14018711
v -0.22467004 2.6104565 0.33415255
v 0.39369386 2.6100016 0.0794954
v -0.39869902 2.6104565 0.5955904
v 0.59559023 2.6104565 0.39869964
v -0.07949494 2.6100016 0.39369398
v 0.33415237 2.6104565 0.22467063
v -0.14018665 2.6100016 0.7016155
v 0.39869907 2.6104565 0.5955906
v 0.07949508 2.6100016 0.39369398
v 0.22467028 2.6104565 0.33415252
v 0.14018665 2.6100016 0.7016156
vt 0.42749023 0.36376953
vt 0.47875977 0.3762207
vt 0.49243164 0.3137207
vt 0.44213867 0.30737305
vt 0.49291992 0.25
vt 0.37597656 0.3383789
vt 0.44482422 0.25561523
vt 0.47851562 0.18981934
vt 0.3918457 0.29833984
vt 0.43408203 0.20617676
vt 0.4506836 0.13549805
vt 0.3334961 0.28173828
vt 0.3239746 0.30249023
vt 0.33691406 0.25952148
vt 0.3959961 0.25878906
vt 0.33398438 0.23742676
vt 0.38916016 0.2208252
vt 0.32543945 0.21716309
vt 0.41259766 0.1607666
vt 0.4116211 0.088256836
vt 0.37329102 0.18688965
vt 0.31103516 0.20080566
vt 0.3798828 0.12414551
vt 0.36010742 0.054870605
vt 0.34960938 0.15856934
vt 0.29345703 0.18774414
vt 0.34033203 0.09667969
vt 0.30297852 0.03677368
vt 0.31958008 0.13769531
vt 0.2734375 0.17980957
vt 0.29492188 0.08135986
vt 0.24438477 0.033203125
vt 0.2854004 0.12561035
vt 0.24682617 0.07733154
vt 0.18579102 0.04296875
vt 0.24975586 0.122558594
vt 0.2524414 0.17736816
vt 0.23156738 0.18164062
vt 0.20043945 0.08691406
vt 0.13293457 0.069885254
vt 0.21472168 0.12890625
vt 0.2121582 0.19006348
vt 0.1583252 0.10668945
vt 0.090026855 0.10882568
vt 0.18261719 0.1439209
vt 0.19580078 0.203125
vt 0.123413086 0.13745117
vt 0.058441162 0.15625
vt 0.15600586 0.16687012
vt 0.18359375 0.21972656
vt 0.09655762 0.17578125
vt 0.03781128 0.2097168
vt 0.1361084 0.19543457
vt 0.1772461 0.23925781
vt 0.08166504 0.21960449
vt 0.033233643 0.2668457
vt 0.12432861 0.22839355
vt 0.17541504 0.25976562
vt 0.07678223 0.26513672
vt 0.041778564 0.32226562
vt 0.12145996 0.26367188
vt 0.17932129 0.2800293
vt 0.083984375 0.31201172
vt 0.058380127 0.37475586
vt 0.10095215 0.36010742
vt 0.1282959 0.29907227
vt 0.1895752 0.2980957
vt 0.14550781 0.3347168
vt 0.78125 0.27514648
vt 0.8354492 0.2697754
vt 0.82470703 0.24963379
vt 0.79052734 0.29223633
vt 0.84521484 0.29052734
vt 0.7988281 0.3100586
vt 0.85302734 0.31201172
vt 0.80566406 0.32836914
vt 0.8598633 0.33398438
vt 0.81152344 0.34716797
vt 0.8652344 0.35620117
vt 0.81591797 0.36621094
vt 0.8691406 0.37890625
vt 0.81933594 0.38549805
vt 0.87109375 0.40161133
vt 0.82128906 0.4050293
vt 0.8720703 0.42456055
vt 0.82177734 0.42456055
vt 0.87109375 0.44750977
vt 0.82128906 0.4440918
vt 0.8691406 0.47021484
vt 0.81933594 0.46362305
vt 0.8652344 0.49291992
vt 0.81591797 0.48291016
vt 0.8598633 0.5151367
vt 0.81152344 0.5019531
vt 0.85302734 0.5371094
vt 0.80566406 0.5209961
vt 0.84521484 0.55859375
vt 0.7988281 0.5390625
vt 0.8354492 0.57958984
vt 0.79052734 0.5571289
vt 0.82470703 0.5996094
vt 0.78125 0.57421875
vt 0.36621094 0.39331055
vt 0.38134766 0.47558594
vt 0.4194336 0.43188477
vt 0.33935547 0.44140625
vt 0.30688477 0.36889648
vt 0.33618164 0.5131836
vt 0.2939453 0.42041016
vt 0.24487305 0.36206055
vt 0.3100586 0.4855957
vt 0.2878418 0.54003906
vt 0.24621582 0.41333008
vt 0.18261719 0.3725586
vt 0.27685547 0.5239258
vt 0.23840332 0.5571289
vt 0.27929688 0.46850586
vt 0.20007324 0.42260742
vt 0.12634277 0.40356445
vt 0.26171875 0.5131836
vt 0.2467041 0.4621582
vt 0.15844727 0.4440918
vt 0.083740234 0.4494629
vt 0.24450684 0.50878906
vt 0.21508789 0.46728516
vt 0.12634277 0.47729492
vt 0.05871582 0.5053711
vt 0.22753906 0.5102539
vt 0.18688965 0.48120117
vt 0.10675049 0.5185547
vt 0.05142212 0.5673828
vt 0.21240234 0.51708984
vt 0.16491699 0.50341797
vt 0.103271484 0.56396484
vt 0.06640625 0.62890625
vt 0.20056152 0.5283203
vt 0.15136719 0.5307617
vt 0.1932373 0.54296875
vt 0.19140625 0.55908203
vt 0.19482422 0.57470703
vt 0.14868164 0.56152344
vt 0.112976074 0.6088867
vt 0.099487305 0.68115234
vt 0.1550293 0.5908203
vt 0.13659668 0.64746094
vt 0.1459961 0.71875
vt 0.17077637 0.6171875
vt 0.17102051 0.6767578
vt 0.20275879 0.7416992
vt 0.20324707 0.5883789
vt 0.21374512 0.69189453
vt 0.2644043 0.7451172
vt 0.19421387 0.63671875
vt 0.25927734 0.6953125
vt 0.32250977 0.73095703
vt 0.21594238 0.5986328
vt 0.2232666 0.64697266
vt 0.30419922 0.6845703
vt 0.37402344 0.703125
vt 0.23144531 0.6040039
vt 0.25439453 0.6489258
vt 0.34521484 0.6616211
vt 0.4194336 0.6635742
vt 0.3815918 0.62646484
vt 0.24816895 0.6040039
vt 0.2854004 0.6401367
vt 0.3137207 0.6220703
vt 0.33691406 0.59375
vt 0.2644043 0.5986328
vt 0.27856445 0.58691406
vt 0.28833008 0.5703125
vt 0.8598633 0.6689453
vt 0.8964844 0.6894531
vt 0.91259766 0.6586914
vt 0.87402344 0.640625
vt 0.92626953 0.6274414
vt 0.88720703 0.6118164
vt 0.9379883 0.59521484
vt 0.8979492 0.58203125
vt 0.9477539 0.5625
vt 0.9067383 0.5517578
vt 0.9135742 0.5209961
vt 0.9550781 0.5288086
vt 0.9604492 0.4951172
vt 0.9189453 0.4897461
vt 0.9638672 0.46118164
vt 0.921875 0.4584961
vt 0.96484375 0.42700195
vt 0.92285156 0.42700195
vt 0.9638672 0.39257812
vt 0.921875 0.39526367
vt 0.9604492 0.35839844
vt 0.9189453 0.36376953
vt 0.9550781 0.32470703
vt 0.9135742 0.33276367
vt 0.9477539 0.29125977
vt 0.9067383 0.30200195
vt 0.9379883 0.25830078
vt 0.8979492 0.27172852
vt 0.92626953 0.22619629
vt 0.88720703 0.24194336
vt 0.8745117 0.21313477
vt 0.91259766 0.19494629
vt 0.8598633 0.1850586
vt 0.8964844 0.16455078
vt 0.7495117 0.7583008
vt 0.7739258 0.83203125
vt 0.79541016 0.80859375
vt 0.73095703 0.7729492
vt 0.7114258 0.78564453
vt 0.74853516 0.8510742
vt 0.6904297 0.79589844
vt 0.71972656 0.86376953
vt 0.66845703 0.8041992
vt 0.68896484 0.87060547
vt 0.6459961 0.8095703
vt 0.6567383 0.8725586
vt 0.6225586 0.8120117
vt 0.625 0.8696289
vt 0.5991211 0.81152344
vt 0.59375 0.86376953
vt 0.5761719 0.8071289
vt 0.56347656 0.85595703
vt 0.5541992 0.7993164
vt 0.5332031 0.8466797
vt 0.5336914 0.7885742
vt 0.50341797 0.8359375
vt 0.51464844 0.77441406
vt 0.47460938 0.8222656
vt 0.49780273 0.7583008
vt 0.4477539 0.8046875
vt 0.86376953 0.12042236
vt 0.8203125 0.10870361
vt 0.84033203 0.12042236
vt 0.88427734 0.10876465
vt 0.80859375 0.088378906
vt 0.8959961 0.08850098
vt 0.80859375 0.064941406
vt 0.8959961 0.06512451
vt 0.8203125 0.04473877
vt 0.88427734 0.04486084
vt 0.8408203 0.033111572
vt 0.8642578 0.03314209
vt 0.6591797 0.38256836
vt 0.6074219 0.38842773
vt 0.6386719 0.4309082
vt 0.5571289 0.45336914
vt 0.5571289 0.4033203
vt 0.51171875 0.4321289
vt 0.5048828 0.51171875
vt 0.47875977 0.4716797
vt 0.45776367 0.5185547
vt 0.49560547 0.5878906
vt 0.44995117 0.56884766
vt 0.46020508 0.6220703
vt 0.53222656 0.65527344
vt 0.48583984 0.6660156
vt 0.52246094 0.70214844
vt 0.6020508 0.6899414
vt 0.5678711 0.7265625
vt 0.62060547 0.7368164
vt 0.6826172 0.68066406
vt 0.67285156 0.73046875
vt 0.72216797 0.7128906
vt 0.7548828 0.6303711
vt 0.76708984 0.68359375
vt 0.69140625 0.6191406
vt 0.63671875 0.64697266
vt 0.5830078 0.6401367
vt 0.54541016 0.6044922
vt 0.6425781 0.60009766
vt 0.6616211 0.5727539
vt 0.6152344 0.5649414
vt 0.61328125 0.60791016
vt 0.58740234 0.5966797
vt 0.53564453 0.5541992
vt 0.57373047 0.5727539
vt 0.5576172 0.5073242
vt 0.5776367 0.54541016
vt 0.60498047 0.4807129
vt 0.59765625 0.5258789
vt 0.6274414 0.52246094
vt 0.65527344 0.54052734
vt 0.66308594 0.48828125
vt 0.7104492 0.5317383
vt 0.7216797 0.46777344
vt 0.7246094 0.4140625
vt 0.67578125 0.39233398
vt 0.77001953 0.44384766
vt 0.5463867 0.08520508
vt 0.52783203 0.13000488
vt 0.52783203 0.17871094
vt 0.5463867 0.22351074
vt 0.5800781 0.05130005
vt 0.5800781 0.25756836
vt 0.625 0.033081055
vt 0.625 0.27563477
vt 0.6738281 0.033081055
vt 0.6738281 0.27563477
vt 0.7182617 0.05130005
vt 0.7182617 0.25756836
vt 0.7524414 0.08520508
vt 0.7524414 0.22351074
vt 0.7705078 0.13000488
vt 0.7705078 0.17871094
vt 0.34716797 0.82958984
vt 0.38110352 0.81933594
vt 0.3515625 0.8071289
vt 0.31958008 0.8071289
vt 0.3684082 0.8383789
vt 0.32421875 0.82958984
vt 0.38452148 0.8544922
vt 0.2902832 0.81933594
vt 0.40356445 0.8417969
vt 0.30297852 0.8383789
vt 0.39331055 0.8754883
vt 0.26782227 0.8417969
vt 0.41552734 0.87109375
vt 0.28686523 0.8544922
vt 0.3930664 0.8984375
vt 0.25585938 0.87109375
vt 0.41552734 0.90283203
vt 0.27807617 0.8754883
vt 0.38452148 0.9199219
vt 0.25585938 0.9033203
vt 0.40356445 0.9326172
vt 0.27807617 0.8984375
vt 0.3684082 0.93603516
vt 0.2680664 0.9326172
vt 0.38110352 0.95458984
vt 0.28686523 0.9199219
vt 0.34716797 0.94433594
vt 0.2902832 0.9550781
vt 0.35180664 0.9667969
vt 0.30322266 0.93603516
vt 0.32421875 0.94433594
vt 0.31982422 0.9667969
vt 0.96533203 0.8754883
vt 0.94091797 0.89501953
vt 0.9477539 0.90478516
vt 0.91796875 0.921875
vt 0.9160156 0.90966797
vt 0.88378906 0.921875
vt 0.8876953 0.91064453
vt 0.85498047 0.90527344
vt 0.86279297 0.89746094
vt 0.8388672 0.8774414
vt 0.8491211 0.87353516
vt 0.8383789 0.8442383
vt 0.8491211 0.8457031
vt 0.85498047 0.8149414
vt 0.86376953 0.82128906
vt 0.8833008 0.79785156
vt 0.8876953 0.8076172
vt 0.9169922 0.796875
vt 0.91552734 0.8076172
vt 0.9472656 0.8125
vt 0.9394531 0.8208008
vt 0.96533203 0.8417969
vt 0.9536133 0.84375
vt 0.95458984 0.87060547
vt 0.091552734 0.8149414
vt 0.109375 0.8076172
vt 0.10192871 0.77001953
vt 0.070251465 0.7832031
vt 0.13635254 0.77001953
vt 0.078125 0.8286133
vt 0.12890625 0.8076172
vt 0.046081543 0.8071289
vt 0.16796875 0.7832031
vt 0.07086182 0.8461914
vt 0.14672852 0.8149414
vt 0.033081055 0.8388672
vt 0.19213867 0.8071289
vt 0.07086182 0.86572266
vt 0.16015625 0.8286133
vt 0.033081055 0.8730469
vt 0.2052002 0.8388672
vt 0.078125 0.88378906
vt 0.1673584 0.8461914
vt 0.046081543 0.90478516
vt 0.2052002 0.8730469
vt 0.091552734 0.89697266
vt 0.1673584 0.86572266
vt 0.070251465 0.9291992
vt 0.19213867 0.90478516
vt 0.109375 0.9042969
vt 0.16015625 0.88378906
vt 0.10192871 0.94189453
vt 0.16796875 0.9291992
vt 0.12890625 0.9042969
vt 0.14672852 0.89697266
vt 0.13635254 0.94189453
vn -0.1763916 -0.41308594 -0.8935547
vn -0.19128418 0.10510254 -0.9760742
vn -0.55078125 0.105773926 -0.828125
vn -0.50146484 -0.4140625 -0.7597656
vn -0.828125 0.10595703 -0.55029297
vn -0.11798096 -0.80029297 -0.5883789
vn -0.7607422 -0.41235352 -0.50146484
vn -0.97558594 0.10510254 -0.19165039
vn -0.34350586 -0.7944336 -0.5004883
vn -0.8935547 -0.41357422 -0.17443848
vn -0.9760742 0.10510254 0.19128418
vn -0.22949219 -0.9213867 -0.3137207
vn -0.04336548 -0.91552734 -0.39990234
vn -0.35180664 -0.9160156 -0.19213867
vn -0.5024414 -0.80078125 -0.32617188
vn -0.38671875 -0.91552734 -0.11004639
vn -0.60302734 -0.79003906 -0.11010742
vn -0.39990234 -0.91552734 0.04333496
vn -0.89404297 -0.4111328 0.1776123
vn -0.828125 0.10601807 0.55029297
vn -0.59228516 -0.79833984 0.10797119
vn -0.3515625 -0.9160156 0.19226074
vn -0.7578125 -0.41235352 0.5058594
vn -0.55029297 0.10595703 0.828125
vn -0.49682617 -0.80126953 0.3330078
vn -0.22924805 -0.9213867 0.3137207
vn -0.50146484 -0.41235352 0.7607422
vn -0.19165039 0.105163574 0.97558594
vn -0.32714844 -0.7944336 0.51123047
vn -0.11004639 -0.91552734 0.38671875
vn -0.17626953 -0.4086914 0.8955078
vn 0.19177246 0.10491943 0.97558594
vn -0.1149292 -0.80029297 0.5883789
vn 0.17211914 -0.41088867 0.8955078
vn 0.55029297 0.10595703 0.828125
vn 0.12011719 -0.7885742 0.60302734
vn 0.04333496 -0.91552734 0.39990234
vn 0.19958496 -0.9213867 0.3334961
vn 0.5058594 -0.41235352 0.7578125
vn 0.828125 0.10546875 0.55078125
vn 0.3330078 -0.80126953 0.49682617
vn 0.31396484 -0.9165039 0.2487793
vn 0.7607422 -0.41235352 0.50146484
vn 0.9760742 0.10455322 0.19177246
vn 0.51123047 -0.7944336 0.32714844
vn 0.38671875 -0.91552734 0.11004639
vn 0.8935547 -0.41210938 0.1772461
vn 0.9760742 0.10455322 -0.19116211
vn 0.60302734 -0.7885742 0.12097168
vn 0.39990234 -0.91552734 -0.04333496
vn 0.89404297 -0.4111328 -0.1776123
vn 0.8286133 0.10546875 -0.5498047
vn 0.5883789 -0.80029297 -0.11798096
vn 0.3515625 -0.9160156 -0.19226074
vn 0.7578125 -0.41235352 -0.5058594
vn 0.55029297 0.10595703 -0.828125
vn 0.49682617 -0.80126953 -0.3330078
vn 0.2487793 -0.9165039 -0.31396484
vn 0.50390625 -0.4099121 -0.7602539
vn 0.19177246 0.10461426 -0.9760742
vn 0.33740234 -0.7998047 -0.4963379
vn 0.09210205 -0.92089844 -0.3791504
vn 0.17224121 -0.4104004 -0.8955078
vn -0.19128418 0.10510254 -0.9760742
vn -0.1763916 -0.41308594 -0.8935547
vn 0.12225342 -0.79833984 -0.58935547
vn -0.04336548 -0.91552734 -0.39990234
vn -0.11798096 -0.80029297 -0.5883789
vn -0.2241211 0.20239258 -0.953125
vn -0.5541992 0.05947876 -0.8305664
vn -0.26831055 0.08935547 -0.9589844
vn -0.5576172 0.21325684 -0.8022461
vn -0.8305664 0.05947876 -0.5541992
vn -0.8232422 0.21325684 -0.5263672
vn -0.98876953 0.089416504 -0.11804199
vn -0.9667969 0.20251465 -0.15637207
vn -0.9790039 0.0592041 0.1940918
vn -0.95458984 0.2130127 0.20837402
vn -0.8305664 0.05947876 0.5541992
vn -0.8022461 0.21325684 0.5576172
vn -0.5541992 0.05947876 0.8305664
vn -0.5263672 0.21325684 0.8232422
vn -0.19421387 0.0592041 0.9790039
vn -0.19042969 0.21691895 0.95751953
vn 0.234375 0.0670166 0.96972656
vn 0.20837402 0.21313477 0.95458984
vn 0.5541992 0.05947876 0.8305664
vn 0.5576172 0.21325684 0.8022461
vn 0.86865234 0.08959961 0.48754883
vn 0.8334961 0.20263672 0.51464844
vn 0.98876953 0.089416504 0.11804199
vn 0.95458984 0.2133789 0.2076416
vn 0.9589844 0.08935547 -0.26831055
vn 0.953125 0.20239258 -0.2241211
vn 0.8305664 0.05947876 -0.5541992
vn 0.8022461 0.21325684 -0.5576172
vn 0.48754883 0.08959961 -0.86865234
vn 0.51464844 0.20263672 -0.8334961
vn 0.11804199 0.089416504 -0.98876953
vn 0.15637207 0.20251465 -0.9667969
vn -0.26831055 0.08935547 -0.9589844
vn -0.2241211 0.20239258 -0.953125
vn 0.19177246 0.10461426 -0.9760742
vn -0.17077637 0.4880371 -0.85595703
vn -0.19128418 0.10510254 -0.9760742
vn 0.16833496 0.48779297 -0.8564453
vn 0.55029297 0.10595703 -0.828125
vn -0.12017822 0.7470703 -0.6538086
vn 0.48291016 0.4892578 -0.7260742
vn 0.8286133 0.10546875 -0.5498047
vn 0.13842773 0.7470703 -0.64990234
vn -0.082214355 0.91064453 -0.40478516
vn 0.7265625 0.49243164 -0.47924805
vn 0.9760742 0.10455322 -0.19116211
vn 0.04046631 0.9267578 -0.37353516
vn 1.1920929E-07 1 0
vn 0.37719727 0.7451172 -0.5498047
vn 0.85546875 0.4909668 -0.16467285
vn 0.9760742 0.10455322 0.19177246
vn 0.23339844 0.91064453 -0.34033203
vn 0.55908203 0.7451172 -0.3630371
vn 0.8540039 0.4909668 0.17236328
vn 0.828125 0.10546875 0.55078125
vn 0.31347656 0.91748047 -0.24536133
vn 0.6538086 0.7470703 -0.12017822
vn 0.7270508 0.49047852 0.48046875
vn 0.55029297 0.10595703 0.828125
vn 0.38330078 0.91748047 -0.10675049
vn 0.64990234 0.7470703 0.13842773
vn 0.48486328 0.48950195 0.7246094
vn 0.19177246 0.10491943 0.97558594
vn 0.39501953 0.91748047 0.04827881
vn 0.5473633 0.7475586 0.37646484
vn 0.17236328 0.49121094 0.8540039
vn -0.19165039 0.105163574 0.97558594
vn 0.3359375 0.9116211 0.2376709
vn 0.36108398 0.7475586 0.5576172
vn 0.20739746 0.9135742 0.34936523
vn 0.059326172 0.93652344 0.3461914
vn -0.10827637 0.92333984 0.36865234
vn 0.13830566 0.74560547 0.65185547
vn -0.16833496 0.48779297 0.8564453
vn -0.55029297 0.10595703 0.828125
vn -0.12854004 0.7416992 0.6586914
vn -0.47924805 0.49487305 0.7246094
vn -0.828125 0.10601807 0.55029297
vn -0.36401367 0.75439453 0.5463867
vn -0.7246094 0.48950195 0.48486328
vn -0.9760742 0.10510254 0.19128418
vn -0.2376709 0.9116211 0.3359375
vn -0.85595703 0.48828125 0.17077637
vn -0.97558594 0.10510254 -0.19165039
vn -0.5576172 0.7475586 0.36108398
vn -0.8564453 0.48779297 -0.16833496
vn -0.828125 0.10595703 -0.55029297
vn -0.34936523 0.9135742 0.20739746
vn -0.6489258 0.7480469 0.13830566
vn -0.7260742 0.4892578 -0.48291016
vn -0.55078125 0.105773926 -0.828125
vn -0.3544922 0.93359375 0.04827881
vn -0.6567383 0.7441406 -0.12243652
vn -0.48486328 0.48950195 -0.7246094
vn -0.19128418 0.10510254 -0.9760742
vn -0.17077637 0.4880371 -0.85595703
vn -0.3935547 0.9135742 -0.10070801
vn -0.5498047 0.7451172 -0.37719727
vn -0.37597656 0.7426758 -0.55371094
vn -0.12017822 0.7470703 -0.6538086
vn -0.28466797 0.93359375 -0.21679688
vn -0.20739746 0.9135742 -0.34936523
vn -0.082214355 0.91064453 -0.40478516
vn -0.09729004 0.6088867 -0.7871094
vn -0.19567871 -0.65234375 -0.7324219
vn 0.12817383 -0.66503906 -0.73583984
vn 0.09875488 0.60791016 -0.78808594
vn 0.38916016 -0.66064453 -0.64160156
vn 0.41210938 0.5961914 -0.68896484
vn 0.6069336 -0.66064453 -0.44140625
vn 0.6894531 0.59765625 -0.4091797
vn 0.7294922 -0.6611328 -0.17553711
vn 0.7783203 0.6220703 -0.08465576
vn 0.7939453 0.5966797 0.117004395
vn 0.74121094 -0.6611328 0.11376953
vn 0.6904297 -0.6230469 0.36767578
vn 0.6430664 0.59765625 0.47924805
vn 0.45947266 -0.64697266 0.60839844
vn 0.4519043 0.68115234 0.5761719
vn 0.07556152 -0.6245117 0.77734375
vn 0.09075928 0.6855469 0.72216797
vn -0.11376953 -0.6611328 0.7416992
vn -0.08654785 0.6196289 0.78027344
vn -0.40014648 -0.6645508 0.6308594
vn -0.36572266 0.6352539 0.68066406
vn -0.6069336 -0.66064453 0.44140625
vn -0.6845703 0.5908203 0.42749023
vn -0.7294922 -0.6611328 0.17553711
vn -0.79541016 0.5913086 0.1328125
vn -0.7416992 -0.6611328 -0.11376953
vn -0.78027344 0.6196289 -0.08654785
vn -0.6748047 -0.6323242 -0.3798828
vn -0.6845703 0.6220703 -0.3798828
vn -0.48388672 0.63623047 -0.60058594
vn -0.47558594 -0.6323242 -0.6113281
vn -0.09729004 0.6088867 -0.7871094
vn -0.19567871 -0.65234375 -0.7324219
vn 0.052886963 -0.7363281 0.6743164
vn -0.36938477 0.23327637 0.89941406
vn 0.1459961 0.2142334 0.9658203
vn -0.2878418 -0.73095703 0.61865234
vn -0.5566406 -0.72802734 0.3996582
vn -0.7841797 0.24621582 0.56933594
vn -0.6796875 -0.7294922 0.07678223
vn -0.96533203 0.25170898 0.07159424
vn -0.6254883 -0.734375 -0.26367188
vn -0.86279297 0.24963379 -0.43945312
vn -0.4074707 -0.7421875 -0.53222656
vn -0.5234375 0.23510742 -0.81884766
vn -0.084472656 -0.75097656 -0.65478516
vn -0.054260254 0.21008301 -0.9760742
vn 0.2565918 -0.7583008 -0.5996094
vn 0.4243164 0.18359375 -0.88671875
vn 0.5253906 -0.76123047 -0.3803711
vn 0.80029297 0.16467285 -0.5761719
vn 0.6489258 -0.75878906 -0.057037354
vn 0.9794922 0.16027832 -0.121276855
vn 0.59472656 -0.7524414 0.2836914
vn 0.9145508 0.17138672 0.36621094
vn 0.3762207 -0.7441406 0.5522461
vn 0.61376953 0.19213867 0.765625
vn 0.052886963 -0.7363281 0.6743164
vn 0.1459961 0.2142334 0.9658203
vn 0.052886963 -0.7363281 0.6743164
vn -0.5566406 -0.72802734 0.3996582
vn -0.2878418 -0.73095703 0.61865234
vn 0.3762207 -0.7441406 0.5522461
vn -0.6796875 -0.7294922 0.07678223
vn 0.59472656 -0.7524414 0.2836914
vn -0.6254883 -0.734375 -0.26367188
vn 0.6489258 -0.75878906 -0.057037354
vn -0.4074707 -0.7421875 -0.53222656
vn 0.5253906 -0.76123047 -0.3803711
vn -0.084472656 -0.75097656 -0.65478516
vn 0.2565918 -0.7583008 -0.5996094
vn 0.44677734 0.4814453 0.75390625
vn 0.75390625 0.48046875 0.4477539
vn 0.60058594 -0.5332031 0.5957031
vn 0.84716797 -0.53125 -0.003528595
vn 0.8520508 0.4790039 0.21203613
vn 0.8520508 0.47875977 -0.21228027
vn 0.5932617 -0.5361328 -0.60058594
vn 0.75390625 0.4807129 -0.4482422
vn 0.4465332 0.48120117 -0.75439453
vn -0.0043754578 -0.5366211 -0.84375
vn 0.21313477 0.48217773 -0.8496094
vn -0.21240234 0.48168945 -0.85009766
vn -0.60009766 -0.53222656 -0.59716797
vn -0.44677734 0.4814453 -0.75390625
vn -0.75390625 0.48046875 -0.4477539
vn -0.84814453 -0.53027344 0.0008635521
vn -0.8515625 0.47924805 -0.21191406
vn -0.8520508 0.47875977 0.21252441
vn -0.59521484 -0.5336914 0.6010742
vn -0.75390625 0.4807129 0.44799805
vn -0.44677734 0.48168945 0.75390625
vn 0.0035209656 -0.53125 0.84716797
vn -0.21203613 0.4819336 0.85009766
vn -0.26464844 -0.72021484 0.6411133
vn -0.6411133 -0.72021484 0.26538086
vn -0.64160156 -0.7207031 -0.2626953
vn -0.2602539 -0.7363281 -0.6245117
vn -0.2553711 -0.9145508 0.31323242
vn -0.03930664 -0.9121094 0.40795898
vn -1.1920929E-07 -1 0
vn -0.42529297 -0.90478516 0.026443481
vn -0.28027344 -0.90527344 -0.31958008
vn 0.2529297 -0.72509766 -0.6401367
vn 0.03857422 -0.9111328 -0.4099121
vn 0.63964844 -0.7207031 -0.26733398
vn 0.31958008 -0.90527344 -0.28027344
vn 0.64208984 -0.7216797 0.25830078
vn 0.3881836 -0.92089844 0.04046631
vn 0.24572754 -0.92089844 0.30297852
vn -0.03930664 -0.9121094 0.40795898
vn 0.27270508 -0.7241211 0.63378906
vn -0.26464844 -0.72021484 0.6411133
vn 0.0035209656 -0.53125 0.84716797
vn 0.21240234 0.48168945 0.85009766
vn 0.44677734 0.4814453 0.75390625
vn -0.21203613 0.4819336 0.85009766
vn 0.75390625 0.4807129 -0.4482422
vn 0.8520508 0.47875977 -0.21228027
vn 0.8520508 0.4790039 0.21203613
vn 0.75390625 0.48046875 0.4477539
vn 0.4465332 0.48120117 -0.75439453
vn 0.44677734 0.4814453 0.75390625
vn 0.21313477 0.48217773 -0.8496094
vn 0.21240234 0.48168945 0.85009766
vn -0.21240234 0.48168945 -0.85009766
vn -0.21203613 0.4819336 0.85009766
vn -0.44677734 0.4814453 -0.75390625
vn -0.44677734 0.48168945 0.75390625
vn -0.75390625 0.48046875 -0.4477539
vn -0.75390625 0.4807129 0.44799805
vn -0.8515625 0.47924805 -0.21191406
vn -0.8520508 0.47875977 0.21252441
vn 0.025756836 0.9892578 -0.14355469
vn -0.48388672 0.63623047 -0.60058594
vn -0.09729004 0.6088867 -0.7871094
vn 0.09875488 0.60791016 -0.78808594
vn -0.033477783 0.9897461 -0.13964844
vn 0.12451172 0.9814453 -0.14587402
vn -0.10290527 0.9921875 -0.06915283
vn 0.41210938 0.5961914 -0.68896484
vn -0.6845703 0.6220703 -0.3798828
vn 0.12042236 0.9892578 -0.08312988
vn -0.12097168 0.9921875 -0.024414062
vn 0.6894531 0.59765625 -0.4091797
vn -0.78027344 0.6196289 -0.08654785
vn 0.1394043 0.9897461 -0.033111572
vn -0.12097168 0.9921875 0.024398804
vn 0.7783203 0.6220703 -0.08465576
vn -0.79541016 0.5913086 0.1328125
vn 0.18225098 0.9814453 0.058654785
vn -0.10253906 0.9921875 0.06890869
vn 0.7939453 0.5966797 0.117004395
vn -0.6845703 0.5908203 0.42749023
vn 0.122680664 0.9892578 0.0793457
vn -0.06890869 0.9921875 0.10253906
vn 0.6430664 0.59765625 0.47924805
vn -0.36572266 0.6352539 0.68066406
vn 0.10253906 0.9921875 0.06890869
vn -0.024368286 0.9921875 0.12097168
vn 0.4519043 0.68115234 0.5761719
vn -0.08654785 0.6196289 0.78027344
vn 0.033111572 0.9897461 0.1394043
vn -0.058654785 0.9814453 0.18225098
vn 0.09075928 0.6855469 0.72216797
vn 0.1459961 0.2142334 0.9658203
vn 0.43017578 0.85595703 0.28759766
vn 0.61376953 0.19213867 0.765625
vn 0.9145508 0.17138672 0.36621094
vn 0.55078125 0.8310547 0.07940674
vn 0.9794922 0.16027832 -0.121276855
vn 0.55566406 0.81933594 -0.14135742
vn 0.80029297 0.16467285 -0.5761719
vn 0.46533203 0.82177734 -0.32885742
vn 0.4243164 0.18359375 -0.88671875
vn 0.30810547 0.83447266 -0.4567871
vn -0.054260254 0.21008301 -0.9760742
vn 0.11010742 0.8535156 -0.50927734
vn -0.5234375 0.23510742 -0.81884766
vn -0.10852051 0.8774414 -0.46728516
vn -0.86279297 0.24963379 -0.43945312
vn -0.3005371 0.90234375 -0.30932617
vn -0.96533203 0.25170898 0.07159424
vn -0.38476562 0.9213867 -0.05316162
vn -0.7841797 0.24621582 0.56933594
vn -0.30273438 0.9272461 0.22033691
vn -0.36938477 0.23327637 0.89941406
vn -0.07409668 0.9140625 0.39892578
vn 0.20336914 0.88671875 0.41552734
vn -0.09991455 -0.9941406 0.042510986
vn -0.11993408 -0.9926758 0.014801025
vn 0.07556152 -0.6245117 0.77734375
vn 0.45947266 -0.64697266 0.60839844
vn -0.11376953 -0.6611328 0.7416992
vn -0.10522461 -0.9926758 0.055389404
vn -0.11590576 -0.9926758 -0.026275635
vn 0.6904297 -0.6230469 0.36767578
vn -0.40014648 -0.6645508 0.6308594
vn -0.026290894 -0.9926758 0.1159668
vn -0.10394287 -0.99316406 -0.05731201
vn 0.74121094 -0.6611328 0.11376953
vn -0.6069336 -0.66064453 0.44140625
vn 0.020080566 -0.9926758 0.119262695
vn -0.06402588 -0.9926758 -0.10235596
vn 0.7294922 -0.6611328 -0.17553711
vn -0.7294922 -0.6611328 0.17553711
vn 0.064086914 -0.9926758 0.10241699
vn -0.020065308 -0.9926758 -0.11920166
vn 0.6069336 -0.66064453 -0.44140625
vn -0.7416992 -0.6611328 -0.11376953
vn 0.09692383 -0.99316406 0.068603516
vn 0.026275635 -0.9926758 -0.11590576
vn 0.38916016 -0.66064453 -0.64160156
vn -0.6748047 -0.6323242 -0.3798828
vn 0.11816406 -0.9926758 0.013175964
vn 0.082336426 -0.9946289 -0.05908203
vn 0.12817383 -0.66503906 -0.73583984
vn -0.47558594 -0.6323242 -0.6113281
vn 0.12084961 -0.9926758 -0.0015573502
vn 0.10040283 -0.9946289 -0.023849487
vn -0.19567871 -0.65234375 -0.7324219
g SoftCurrency_0
f 3/3/3 2/2/2 1/1/1
f 4/4/4 3/3/3 1/1/1
f 5/5/5 3/3/3 4/4/4
f 4/4/4 1/1/1 6/6/6
f 7/7/7 5/5/5 4/4/4
f 8/8/8 5/5/5 7/7/7
f 9/9/9 4/4/4 6/6/6
f 7/7/7 4/4/4 9/9/9
f 10/10/10 8/8/8 7/7/7
f 11/11/11 8/8/8 10/10/10
f 9/9/9 6/6/6 12/12/12
f 6/6/6 13/13/13 12/12/12
f 9/9/9 12/12/12 14/14/14
f 15/15/15 7/7/7 9/9/9
f 15/15/15 9/9/9 14/14/14
f 10/10/10 7/7/7 15/15/15
f 15/15/15 14/14/14 16/16/16
f 17/17/17 15/15/15 16/16/16
f 17/17/17 10/10/10 15/15/15
f 17/17/17 16/16/16 18/18/18
f 19/19/19 11/11/11 10/10/10
f 19/19/19 10/10/10 17/17/17
f 20/20/20 11/11/11 19/19/19
f 21/21/21 17/17/17 18/18/18
f 21/21/21 19/19/19 17/17/17
f 21/21/21 18/18/18 22/22/22
f 23/23/23 20/20/20 19/19/19
f 23/23/23 19/19/19 21/21/21
f 24/24/24 20/20/20 23/23/23
f 25/25/25 21/21/21 22/22/22
f 25/25/25 23/23/23 21/21/21
f 25/25/25 22/22/22 26/26/26
f 27/27/27 24/24/24 23/23/23
f 27/27/27 23/23/23 25/25/25
f 28/28/28 24/24/24 27/27/27
f 29/29/29 25/25/25 26/26/26
f 29/29/29 27/27/27 25/25/25
f 29/29/29 26/26/26 30/30/30
f 31/31/31 28/28/28 27/27/27
f 31/31/31 27/27/27 29/29/29
f 28/28/28 31/31/31 32/32/32
f 33/33/33 29/29/29 30/30/30
f 33/33/33 31/31/31 29/29/29
f 31/31/31 34/34/34 32/32/32
f 31/31/31 33/33/33 34/34/34
f 35/35/35 32/32/32 34/34/34
f 36/36/36 33/33/33 30/30/30
f 33/33/33 36/36/36 34/34/34
f 37/37/37 36/36/36 30/30/30
f 36/36/36 37/37/37 38/38/38
f 39/39/39 35/35/35 34/34/34
f 39/39/39 34/34/34 36/36/36
f 40/40/40 35/35/35 39/39/39
f 41/41/41 36/36/36 38/38/38
f 41/41/41 39/39/39 36/36/36
f 41/41/41 38/38/38 42/42/42
f 43/43/43 40/40/40 39/39/39
f 43/43/43 39/39/39 41/41/41
f 44/44/44 40/40/40 43/43/43
f 45/45/45 41/41/41 42/42/42
f 45/45/45 43/43/43 41/41/41
f 45/45/45 42/42/42 46/46/46
f 47/47/47 44/44/44 43/43/43
f 47/47/47 43/43/43 45/45/45
f 48/48/48 44/44/44 47/47/47
f 49/49/49 45/45/45 46/46/46
f 49/49/49 47/47/47 45/45/45
f 49/49/49 46/46/46 50/50/50
f 51/51/51 48/48/48 47/47/47
f 51/51/51 47/47/47 49/49/49
f 52/52/52 48/48/48 51/51/51
f 53/53/53 49/49/49 50/50/50
f 53/53/53 51/51/51 49/49/49
f 53/53/53 50/50/50 54/54/54
f 55/55/55 52/52/52 51/51/51
f 55/55/55 51/51/51 53/53/53
f 56/56/56 52/52/52 55/55/55
f 57/57/57 53/53/53 54/54/54
f 57/57/57 55/55/55 53/53/53
f 57/57/57 54/54/54 58/58/58
f 59/59/59 56/56/56 55/55/55
f 59/59/59 55/55/55 57/57/57
f 60/60/60 56/56/56 59/59/59
f 61/61/61 57/57/57 58/58/58
f 61/61/61 59/59/59 57/57/57
f 61/61/61 58/58/58 62/62/62
f 63/63/63 60/60/60 59/59/59
f 63/63/63 59/59/59 61/61/61
f 64/64/64 60/60/60 63/63/63
f 65/65/65 64/64/64 63/63/63
f 66/66/66 61/61/61 62/62/62
f 66/66/66 63/63/63 61/61/61
f 65/65/65 63/63/63 66/66/66
f 66/66/66 62/62/62 67/67/67
f 68/68/68 65/65/65 66/66/66
f 68/68/68 66/66/66 67/67/67
f 71/71/71 70/70/70 69/69/69
f 70/70/70 72/72/72 69/69/69
f 70/70/70 73/73/73 72/72/72
f 73/73/73 74/74/74 72/72/72
f 73/73/73 75/75/75 74/74/74
f 75/75/75 76/76/76 74/74/74
f 75/75/75 77/77/77 76/76/76
f 77/77/77 78/78/78 76/76/76
f 77/77/77 79/79/79 78/78/78
f 79/79/79 80/80/80 78/78/78
f 79/79/79 81/81/81 80/80/80
f 81/81/81 82/82/82 80/80/80
f 81/81/81 83/83/83 82/82/82
f 83/83/83 84/84/84 82/82/82
f 83/83/83 85/85/85 84/84/84
f 85/85/85 86/86/86 84/84/84
f 85/85/85 87/87/87 86/86/86
f 87/87/87 88/88/88 86/86/86
f 87/87/87 89/89/89 88/88/88
f 89/89/89 90/90/90 88/88/88
f 89/89/89 91/91/91 90/90/90
f 91/91/91 92/92/92 90/90/90
f 91/91/91 93/93/93 92/92/92
f 93/93/93 94/94/94 92/92/92
f 93/93/93 95/95/95 94/94/94
f 95/95/95 96/96/96 94/94/94
f 95/95/95 97/97/97 96/96/96
f 97/97/97 98/98/98 96/96/96
f 97/97/97 99/99/99 98/98/98
f 99/99/99 100/100/100 98/98/98
f 99/99/99 101/101/101 100/100/100
f 101/101/101 102/102/102 100/100/100
f 105/105/105 104/104/104 103/103/103
f 104/104/104 106/106/106 103/103/103
f 103/103/103 106/106/106 107/107/107
f 104/104/104 108/108/108 106/106/106
f 106/106/106 109/109/109 107/107/107
f 107/107/107 109/109/109 110/110/110
f 108/108/108 111/111/111 106/106/106
f 106/106/106 111/111/111 109/109/109
f 108/108/108 112/112/112 111/111/111
f 109/109/109 113/113/113 110/110/110
f 110/110/110 113/113/113 114/114/114
f 112/112/112 115/115/115 111/111/111
f 112/112/112 116/116/116 115/115/115
f 111/111/111 117/117/117 109/109/109
f 111/111/111 115/115/115 117/117/117
f 109/109/109 117/117/117 113/113/113
f 113/113/113 118/118/118 114/114/114
f 114/114/114 118/118/118 119/119/119
f 115/115/115 120/120/120 117/117/117
f 115/115/115 116/116/116 120/120/120
f 117/117/117 121/121/121 113/113/113
f 117/117/117 120/120/120 121/121/121
f 113/113/113 121/121/121 118/118/118
f 118/118/118 122/122/122 119/119/119
f 119/119/119 122/122/122 123/123/123
f 120/120/120 124/124/124 121/121/121
f 120/120/120 116/116/116 124/124/124
f 121/121/121 125/125/125 118/118/118
f 121/121/121 124/124/124 125/125/125
f 118/118/118 125/125/125 122/122/122
f 122/122/122 126/126/126 123/123/123
f 123/123/123 126/126/126 127/127/127
f 124/124/124 128/128/128 125/125/125
f 124/124/124 116/116/116 128/128/128
f 125/125/125 129/129/129 122/122/122
f 125/125/125 128/128/128 129/129/129
f 122/122/122 129/129/129 126/126/126
f 126/126/126 130/130/130 127/127/127
f 127/127/127 130/130/130 131/131/131
f 128/128/128 132/132/132 129/129/129
f 128/128/128 116/116/116 132/132/132
f 129/129/129 133/133/133 126/126/126
f 129/129/129 132/132/132 133/133/133
f 126/126/126 133/133/133 130/130/130
f 130/130/130 134/134/134 131/131/131
f 135/135/135 131/131/131 134/134/134
f 132/132/132 116/116/116 136/136/136
f 132/132/132 136/136/136 133/133/133
f 133/133/133 137/137/137 130/130/130
f 133/133/133 136/136/136 137/137/137
f 130/130/130 137/137/137 134/134/134
f 136/136/136 116/116/116 138/138/138
f 136/136/136 138/138/138 137/137/137
f 138/138/138 116/116/116 139/139/139
f 140/140/140 139/139/139 116/116/116
f 137/137/137 138/138/138 141/141/141
f 137/137/137 141/141/141 134/134/134
f 138/138/138 139/139/139 141/141/141
f 142/142/142 135/135/135 134/134/134
f 142/142/142 134/134/134 141/141/141
f 135/135/135 142/142/142 143/143/143
f 144/144/144 141/141/141 139/139/139
f 144/144/144 142/142/142 141/141/141
f 140/140/140 144/144/144 139/139/139
f 142/142/142 145/145/145 143/143/143
f 142/142/142 144/144/144 145/145/145
f 143/143/143 145/145/145 146/146/146
f 144/144/144 140/140/140 147/147/147
f 144/144/144 147/147/147 145/145/145
f 145/145/145 148/148/148 146/146/146
f 145/145/145 147/147/147 148/148/148
f 146/146/146 148/148/148 149/149/149
f 140/140/140 150/150/150 147/147/147
f 140/140/140 116/116/116 150/150/150
f 148/148/148 151/151/151 149/149/149
f 149/149/149 151/151/151 152/152/152
f 147/147/147 153/153/153 148/148/148
f 147/147/147 150/150/150 153/153/153
f 148/148/148 153/153/153 151/151/151
f 151/151/151 154/154/154 152/152/152
f 152/152/152 154/154/154 155/155/155
f 150/150/150 156/156/156 153/153/153
f 150/150/150 116/116/116 156/156/156
f 153/153/153 157/157/157 151/151/151
f 153/153/153 156/156/156 157/157/157
f 151/151/151 157/157/157 154/154/154
f 154/154/154 158/158/158 155/155/155
f 155/155/155 158/158/158 159/159/159
f 156/156/156 160/160/160 157/157/157
f 156/156/156 116/116/116 160/160/160
f 157/157/157 161/161/161 154/154/154
f 157/157/157 160/160/160 161/161/161
f 154/154/154 161/161/161 158/158/158
f 158/158/158 162/162/162 159/159/159
f 159/159/159 162/162/162 163/163/163
f 162/162/162 164/164/164 163/163/163
f 160/160/160 165/165/165 161/161/161
f 160/160/160 116/116/116 165/165/165
f 161/161/161 166/166/166 158/158/158
f 158/158/158 166/166/166 162/162/162
f 161/161/161 165/165/165 166/166/166
f 162/162/162 167/167/167 164/164/164
f 166/166/166 167/167/167 162/162/162
f 167/167/167 168/168/168 164/164/164
f 165/165/165 169/169/169 166/166/166
f 165/165/165 116/116/116 169/169/169
f 166/166/166 169/169/169 167/167/167
f 167/167/167 170/170/170 168/168/168
f 169/169/169 170/170/170 167/167/167
f 169/169/169 116/116/116 170/170/170
f 170/170/170 171/171/171 168/168/168
f 170/170/170 116/116/116 171/171/171
f 174/174/174 173/173/173 172/172/172
f 175/175/175 174/174/174 172/172/172
f 176/176/176 174/174/174 175/175/175
f 177/177/177 176/176/176 175/175/175
f 178/178/178 176/176/176 177/177/177
f 179/179/179 178/178/178 177/177/177
f 180/180/180 178/178/178 179/179/179
f 181/181/181 180/180/180 179/179/179
f 180/180/180 181/181/181 182/182/182
f 183/183/183 180/180/180 182/182/182
f 184/184/184 183/183/183 182/182/182
f 185/185/185 184/184/184 182/182/182
f 186/186/186 184/184/184 185/185/185
f 187/187/187 186/186/186 185/185/185
f 188/188/188 186/186/186 187/187/187
f 189/189/189 188/188/188 187/187/187
f 190/190/190 188/188/188 189/189/189
f 191/191/191 190/190/190 189/189/189
f 192/192/192 190/190/190 191/191/191
f 193/193/193 192/192/192 191/191/191
f 194/194/194 192/192/192 193/193/193
f 195/195/195 194/194/194 193/193/193
f 196/196/196 194/194/194 195/195/195
f 197/197/197 196/196/196 195/195/195
f 198/198/198 196/196/196 197/197/197
f 199/199/199 198/198/198 197/197/197
f 200/200/200 198/198/198 199/199/199
f 201/201/201 200/200/200 199/199/199
f 200/200/200 201/201/201 202/202/202
f 203/203/203 200/200/200 202/202/202
f 203/203/203 202/202/202 204/204/204
f 205/205/205 203/203/203 204/204/204
f 208/208/208 207/207/207 206/206/206
f 207/207/207 209/209/209 206/206/206
f 210/210/210 209/209/209 207/207/207
f 211/211/211 210/210/210 207/207/207
f 212/212/212 210/210/210 211/211/211
f 213/213/213 212/212/212 211/211/211
f 214/214/214 212/212/212 213/213/213
f 215/215/215 214/214/214 213/213/213
f 216/216/216 214/214/214 215/215/215
f 217/217/217 216/216/216 215/215/215
f 218/218/218 216/216/216 217/217/217
f 219/219/219 218/218/218 217/217/217
f 220/220/220 218/218/218 219/219/219
f 221/221/221 220/220/220 219/219/219
f 222/222/222 220/220/220 221/221/221
f 223/223/223 222/222/222 221/221/221
f 224/224/224 222/222/222 223/223/223
f 225/225/225 224/224/224 223/223/223
f 226/226/226 224/224/224 225/225/225
f 227/227/227 226/226/226 225/225/225
f 228/228/228 226/226/226 227/227/227
f 229/229/229 228/228/228 227/227/227
f 230/230/230 228/228/228 229/229/229
f 231/231/231 230/230/230 229/229/229
f 234/234/234 233/233/233 232/232/232
f 232/232/232 233/233/233 235/235/235
f 233/233/233 236/236/236 235/235/235
f 235/235/235 236/236/236 237/237/237
f 236/236/236 238/238/238 237/237/237
f 237/237/237 238/238/238 239/239/239
f 238/238/238 240/240/240 239/239/239
f 239/239/239 240/240/240 241/241/241
f 240/240/240 242/242/242 241/241/241
f 241/241/241 242/242/242 243/243/243
f 246/246/246 245/245/245 244/244/244
f 246/246/246 247/247/247 245/245/245
f 247/247/247 248/248/248 245/245/245
f 247/247/247 249/249/249 248/248/248
f 247/247/247 250/250/250 249/249/249
f 250/250/250 251/251/251 249/249/249
f 250/250/250 252/252/252 251/251/251
f 250/250/250 253/253/253 252/252/252
f 253/253/253 254/254/254 252/252/252
f 255/255/255 254/254/254 253/253/253
f 253/253/253 256/256/256 255/255/255
f 256/256/256 257/257/257 255/255/255
f 256/256/256 258/258/258 257/257/257
f 256/256/256 259/259/259 258/258/258
f 259/259/259 260/260/260 258/258/258
f 259/259/259 261/261/261 260/260/260
f 259/259/259 262/262/262 261/261/261
f 262/262/262 263/263/263 261/261/261
f 262/262/262 264/264/264 263/263/263
f 262/262/262 265/265/265 264/264/264
f 265/265/265 266/266/266 264/264/264
f 267/267/267 265/265/265 262/262/262
f 268/268/268 262/262/262 259/259/259
f 268/268/268 267/267/267 262/262/262
f 269/269/269 259/259/259 256/256/256
f 269/269/269 268/268/268 259/259/259
f 270/270/270 256/256/256 253/253/253
f 270/270/270 269/269/269 256/256/256
f 271/271/271 267/267/267 268/268/268
f 271/271/271 272/272/272 267/267/267
f 273/273/273 272/272/272 271/271/271
f 274/274/274 271/271/271 268/268/268
f 274/274/274 268/268/268 269/269/269
f 273/273/273 271/271/271 274/274/274
f 275/275/275 274/274/274 269/269/269
f 275/275/275 269/269/269 270/270/270
f 273/273/273 274/274/274 275/275/275
f 253/253/253 276/276/276 270/270/270
f 276/276/276 253/253/253 250/250/250
f 277/277/277 275/275/275 270/270/270
f 273/273/273 275/275/275 277/277/277
f 270/270/270 276/276/276 277/277/277
f 278/278/278 276/276/276 250/250/250
f 278/278/278 250/250/250 247/247/247
f 279/279/279 277/277/277 276/276/276
f 273/273/273 277/277/277 279/279/279
f 279/279/279 276/276/276 278/278/278
f 280/280/280 278/278/278 247/247/247
f 280/280/280 247/247/247 246/246/246
f 281/281/281 279/279/279 278/278/278
f 273/273/273 279/279/279 281/281/281
f 281/281/281 278/278/278 280/280/280
f 273/273/273 281/281/281 282/282/282
f 282/282/282 281/281/281 280/280/280
f 273/273/273 282/282/282 283/283/283
f 282/282/282 280/280/280 284/284/284
f 283/283/283 282/282/282 284/284/284
f 284/284/284 280/280/280 246/246/246
f 283/283/283 284/284/284 285/285/285
f 285/285/285 284/284/284 286/286/286
f 284/284/284 246/246/246 286/286/286
f 286/286/286 246/246/246 287/287/287
f 246/246/246 288/288/288 287/287/287
f 286/286/286 287/287/287 289/289/289
f 292/292/292 291/291/291 290/290/290
f 293/293/293 292/292/292 290/290/290
f 293/293/293 290/290/290 294/294/294
f 295/295/295 293/293/293 294/294/294
f 296/296/296 295/295/295 294/294/294
f 296/296/296 297/297/297 295/295/295
f 298/298/298 297/297/297 296/296/296
f 298/298/298 299/299/299 297/297/297
f 300/300/300 299/299/299 298/298/298
f 300/300/300 301/301/301 299/299/299
f 302/302/302 301/301/301 300/300/300
f 302/302/302 303/303/303 301/301/301
f 304/304/304 303/303/303 302/302/302
f 305/305/305 303/303/303 304/304/304
f 308/308/308 307/307/307 306/306/306
f 309/309/309 308/308/308 306/306/306
f 307/307/307 310/310/310 306/306/306
f 311/311/311 309/309/309 306/306/306
f 312/312/312 310/310/310 307/307/307
f 313/313/313 309/309/309 311/311/311
f 314/314/314 312/312/312 307/307/307
f 315/315/315 313/313/313 311/311/311
f 312/312/312 314/314/314 316/316/316
f 317/317/317 313/313/313 315/315/315
f 314/314/314 318/318/318 316/316/316
f 319/319/319 317/317/317 315/315/315
f 316/316/316 318/318/318 320/320/320
f 321/321/321 317/317/317 319/319/319
f 318/318/318 322/322/322 320/320/320
f 323/323/323 321/321/321 319/319/319
f 320/320/320 322/322/322 324/324/324
f 325/325/325 321/321/321 323/323/323
f 322/322/322 326/326/326 324/324/324
f 327/327/327 325/325/325 323/323/323
f 324/324/324 326/326/326 328/328/328
f 329/329/329 325/325/325 327/327/327
f 326/326/326 330/330/330 328/328/328
f 331/331/331 329/329/329 327/327/327
f 328/328/328 330/330/330 332/332/332
f 333/333/333 329/329/329 331/331/331
f 330/330/330 334/334/334 332/332/332
f 335/335/335 333/333/333 331/331/331
f 332/332/332 334/334/334 336/336/336
f 337/337/337 333/333/333 335/335/335
f 336/336/336 337/337/337 335/335/335
f 334/334/334 337/337/337 336/336/336
f 340/340/340 339/339/339 338/338/338
f 339/339/339 340/340/340 341/341/341
f 342/342/342 339/339/339 341/341/341
f 342/342/342 341/341/341 343/343/343
f 344/344/344 342/342/342 343/343/343
f 344/344/344 343/343/343 345/345/345
f 346/346/346 344/344/344 345/345/345
f 346/346/346 345/345/345 347/347/347
f 348/348/348 346/346/346 347/347/347
f 348/348/348 347/347/347 349/349/349
f 350/350/350 348/348/348 349/349/349
f 350/350/350 349/349/349 351/351/351
f 348/348/348 350/350/350 352/352/352
f 352/352/352 350/350/350 351/351/351
f 348/348/348 352/352/352 346/346/346
f 352/352/352 351/351/351 353/353/353
f 352/352/352 354/354/354 346/346/346
f 354/354/354 352/352/352 353/353/353
f 346/346/346 354/354/354 344/344/344
f 354/354/354 353/353/353 355/355/355
f 354/354/354 356/356/356 344/344/344
f 356/356/356 354/354/354 355/355/355
f 342/342/342 344/344/344 356/356/356
f 356/356/356 355/355/355 357/357/357
f 342/342/342 356/356/356 358/358/358
f 358/358/358 356/356/356 357/357/357
f 358/358/358 357/357/357 359/359/359
f 358/358/358 339/339/339 342/342/342
f 360/360/360 358/358/358 359/359/359
f 339/339/339 358/358/358 360/360/360
f 360/360/360 359/359/359 338/338/338
f 360/360/360 361/361/361 339/339/339
f 339/339/339 361/361/361 338/338/338
f 361/361/361 360/360/360 338/338/338
f 364/364/364 363/363/363 362/362/362
f 365/365/365 364/364/364 362/362/362
f 364/364/364 366/366/366 363/363/363
f 365/365/365 362/362/362 367/367/367
f 366/366/366 368/368/368 363/363/363
f 369/369/369 365/365/365 367/367/367
f 366/366/366 370/370/370 368/368/368
f 369/369/369 367/367/367 371/371/371
f 370/370/370 372/372/372 368/368/368
f 373/373/373 369/369/369 371/371/371
f 370/370/370 374/374/374 372/372/372
f 373/373/373 371/371/371 375/375/375
f 374/374/374 376/376/376 372/372/372
f 377/377/377 373/373/373 375/375/375
f 374/374/374 378/378/378 376/376/376
f 377/377/377 375/375/375 379/379/379
f 378/378/378 380/380/380 376/376/376
f 381/381/381 377/377/377 379/379/379
f 378/378/378 382/382/382 380/380/380
f 381/381/381 379/379/379 383/383/383
f 382/382/382 384/384/384 380/380/380
f 385/385/385 381/381/381 383/383/383
f 382/382/382 386/386/386 384/384/384
f 385/385/385 383/383/383 387/387/387
f 386/386/386 388/388/388 384/384/384
f 389/389/389 385/385/385 387/387/387
f 386/386/386 390/390/390 388/388/388
f 389/389/389 387/387/387 391/391/391
f 390/390/390 392/392/392 388/388/388
f 393/393/393 389/389/389 391/391/391
f 393/393/393 391/391/391 392/392/392
f 390/390/390 393/393/393 392/392/392
